{
  "meta_path": "meta",
  "cmd_path": "query",
  "renew_seconds": 0,
  "apps": {
    "_dashboard": {
      "meta": "dashboard.json",
      "block": true,
      "sample": 10
    }, 
    "help": {
      "meta": "help.json",
      "block": true
    },
    "_all": {
      "meta": "all_apps.json",
      "block": true
    },
    "_createcmd": {
      "args": [
        "APP",
        "CMD"
      ],
      "block": true,
      "cmd": "createcmd.sh",
      "output": "createcmd.test_cmd",
      "temp": [],
      "type": "command"
    },
    "lvr_main_a": {
      "type": "command",
      "meta": "lvr_main_a.json",
      "cmd": "TimeLiveBI.sh",
      "args": ["TABLE_PARAM","X_PARAMS","Y_PARAMS","SUBGROUP_PARAM","FILTER_PARAMS","TRACK_TICKET","TIME_PARAMS","CONDITIONS"],
      "output": "TimeLiveBI",
      "temp":["CombineTimesLiveBI"],
      "block": true
    },
    "lvr_main_a_drilldown": {
      "type": "command",
      "cmd": "TimeLiveBI.sh",
      "args": ["TABLE_PARAM","X_PARAMS","Y_PARAMS","SUBGROUP_PARAM","FILTER_PARAMS","TRACK_TICKET","TIME_PARAMS","CONDITIONS"],
      "output": "TimeLiveBI",
      "temp":[],
      "block": true
    },
    "lvr_main_a_drilldown_api": {
      "type": "event",
      "cmd": "TimeLiveBI_api.sh",
      "args": ["TABLE_PARAM","X_PARAMS","Y_PARAMS","SUBGROUP_PARAM","FILTER_PARAMS","TRACK_TICKET","TIME_PARAMS","CONDITIONS","API_INPUT"],
      "output": "DrilldownExportAPI",
      "temp":["DrilldownExportCache"],
      "block": true
    },
    "lvr_main_a_track": {
      "type": "command",
      "cmd": "TimeLiveBI_Track.sh",
      "args": ["TABLE_PARAM","X_PARAMS","Y_PARAMS","SUBGROUP_PARAM","FILTER_PARAMS","TRACK_TICKET","TIME_PARAMS","CONDITIONS"],
      "output": "Track",
      "temp":[],
      "block": true,
      "permanentTable":true
    },
    "lvr_main_a_xgrouping": {
      "type": "command",
      "cmd": "TimeLiveBI_XGrouping.sh",
      "args": ["PRETICKET","XGROUP","XDIM","TYPE"],
      "output": "XGroup",
      "temp":[],
      "block": true,
      "permanentTable":true
    },
    "lvr_main_a_lineoverall": {
      "type": "command",
      "cmd": "TimeLiveBI_LineOverall.sh",
      "args": ["TABLE_PARAM","X_PARAMS","Y_PARAMS","SUBGROUP_PARAM","FILTER_PARAMS","TRACK_TICKET","TIME_PARAMS","CONDITIONS"],
      "output": "TimeLiveBI_LineOverall",
      "temp":[],
      "block": true
    },
    "lvr_main_a_lineaverage": {
      "type": "command",
      "cmd": "TimeLiveBI_LineAverage.sh",
      "args": ["TABLE_PARAM","X_PARAMS","Y_PARAMS","SUBGROUP_PARAM","FILTER_PARAMS","TRACK_TICKET","TIME_PARAMS","CONDITIONS"],
      "output": "TimeLiveBI_LineAverage",
      "temp":[],
      "block": true
    },
    "lvr_main_a_linetrend": {
      "type": "command",
      "cmd": "TimeLiveBI_LineTrend.sh",
      "args": ["TABLE_PARAM","X_PARAMS","Y_PARAMS","SUBGROUP_PARAM","FILTER_PARAMS","TRACK_TICKET","TIME_PARAMS","CONDITIONS"],
      "output": "TimeLiveBI_LineTrend",
      "temp":[],
      "block": true
    },
    "lvr_main_a_rawdata": {
      "type": "command",
      "cmd": "TimeLiveBI_LineTrend.sh",
      "args": ["TABLE_PARAM","X_PARAMS","Y_PARAMS","SUBGROUP_PARAM","FILTER_PARAMS","TRACK_TICKET","TIME_PARAMS","CONDITIONS"],
      "output": "TimeLiveBI_LineTrend",
      "temp":[],
      "block": true
    },
    "req_example": {
      "meta": "req_example.json",
      "cmd": "req_example.sh",
      "type": "command",
      "args": ["COLUMN","channel_name_filter","Product_brandOwner","req_example_dynamic","Date_start","Date_end","els_word"],
      "output": "req_example",
      "partition": {}
    },
    "req_example_api": {
      "cmd": "req_example_csv.sh",
      "type": "event",
      "args": ["COLUMN","channel_name_filter","Product_brandOwner","req_example_dynamic","Date_start","Date_end","els_word","API"],
      "output": "req_example_api",
      "partition": {},
      "block": true
    },
    "req_example_csv": {
      "cmd": "req_example_csv.sh",
      "type": "event",
      "args": ["COLUMN","channel_name_filter","Product_brandOwner","req_example_dynamic","Date_start","Date_end","els_word"],
      "output": "req_example_csv",
      "partition": {},
      "block": true
    },
    "req_example_rawdata": {
      "cmd": "req_example_csv.sh",
      "type": "event",
      "args": ["COLUMN","channel_name_filter","Product_brandOwner","req_example_dynamic","Date_start","Date_end","els_word"],
      "output": "req_example_rawdata",
      "partition": {},
      "block": true
    },
    "req_example_dynamic": {
      "meta": "req_example.json",
      "cmd": "req_example_dynamic.sh",
      "type": "command",
      "args": ["Product_brandOwner"],
      "output": "req_example_dynamic",
      "partition": {},
      "block": true
    },
    "lvr_main_b": {
      "type": "command",
      "meta": "lvr_main_b.json",
      "cmd": "TimeLiveBI.sh",
      "args": ["TABLE_PARAM","X_PARAMS","Y_PARAMS","SUBGROUP_PARAM","FILTER_PARAMS","TRACK_TICKET","TIME_PARAMS","CONDITIONS"],
      "output": "TimeLiveBI",
      "temp":["CombineTimesLiveBI"],
      "block": true
    },
    "lvr_main_b_drilldown": {
      "type": "command",
      "cmd": "TimeLiveBI.sh",
      "args": ["TABLE_PARAM","X_PARAMS","Y_PARAMS","SUBGROUP_PARAM","FILTER_PARAMS","TRACK_TICKET","TIME_PARAMS","CONDITIONS"],
      "output": "TimeLiveBI",
      "temp":[],
      "block": true
    },
    "lvr_main_b_drilldown_api": {
      "type": "event",
      "cmd": "TimeLiveBI_api.sh",
      "args": ["TABLE_PARAM","X_PARAMS","Y_PARAMS","SUBGROUP_PARAM","FILTER_PARAMS","TRACK_TICKET","TIME_PARAMS","CONDITIONS","API_INPUT"],
      "output": "DrilldownExportAPI",
      "temp":["DrilldownExportCache"],
      "block": true
    },
    "lvr_main_b_track": {
      "type": "command",
      "cmd": "TimeLiveBI_Track.sh",
      "args": ["TABLE_PARAM","X_PARAMS","Y_PARAMS","SUBGROUP_PARAM","FILTER_PARAMS","TRACK_TICKET","TIME_PARAMS","CONDITIONS"],
      "output": "Track",
      "temp":[],
      "block": true,
      "permanentTable":true
    },
    "lvr_main_b_xgrouping": {
      "type": "command",
      "cmd": "TimeLiveBI_XGrouping.sh",
      "args": ["PRETICKET","XGROUP","XDIM","TYPE"],
      "output": "XGroup",
      "temp":[],
      "block": true,
      "permanentTable":true
    },
    "lvr_main_b_lineoverall": {
      "type": "command",
      "cmd": "TimeLiveBI_LineOverall.sh",
      "args": ["TABLE_PARAM","X_PARAMS","Y_PARAMS","SUBGROUP_PARAM","FILTER_PARAMS","TRACK_TICKET","TIME_PARAMS","CONDITIONS"],
      "output": "TimeLiveBI_LineOverall",
      "temp":[],
      "block": true
    },
    "lvr_main_b_lineaverage": {
      "type": "command",
      "cmd": "TimeLiveBI_LineAverage.sh",
      "args": ["TABLE_PARAM","X_PARAMS","Y_PARAMS","SUBGROUP_PARAM","FILTER_PARAMS","TRACK_TICKET","TIME_PARAMS","CONDITIONS"],
      "output": "TimeLiveBI_LineAverage",
      "temp":[],
      "block": true
    },
    "lvr_main_b_linetrend": {
      "type": "command",
      "cmd": "TimeLiveBI_LineTrend.sh",
      "args": ["TABLE_PARAM","X_PARAMS","Y_PARAMS","SUBGROUP_PARAM","FILTER_PARAMS","TRACK_TICKET","TIME_PARAMS","CONDITIONS"],
      "output": "TimeLiveBI_LineTrend",
      "temp":[],
      "block": true
    },
    "lvr_main_b_rawdata": {
      "type": "command",
      "cmd": "TimeLiveBI_LineTrend.sh",
      "args": ["TABLE_PARAM","X_PARAMS","Y_PARAMS","SUBGROUP_PARAM","FILTER_PARAMS","TRACK_TICKET","TIME_PARAMS","CONDITIONS"],
      "output": "TimeLiveBI_LineTrend",
      "temp":[],
      "block": true
    },
    "lvr_main_c": {
      "type": "command",
      "meta": "lvr_main_c.json",
      "cmd": "TimeLiveBI.sh",
      "args": ["TABLE_PARAM","X_PARAMS","Y_PARAMS","SUBGROUP_PARAM","FILTER_PARAMS","TRACK_TICKET","TIME_PARAMS","CONDITIONS"],
      "output": "TimeLiveBI",
      "temp":["CombineTimesLiveBI"],
      "block": true
    },
    "lvr_main_c_drilldown": {
      "type": "command",
      "cmd": "TimeLiveBI.sh",
      "args": ["TABLE_PARAM","X_PARAMS","Y_PARAMS","SUBGROUP_PARAM","FILTER_PARAMS","TRACK_TICKET","TIME_PARAMS","CONDITIONS"],
      "output": "TimeLiveBI",
      "temp":[],
      "block": true
    },
    "lvr_main_c_drilldown_api": {
      "type": "event",
      "cmd": "TimeLiveBI_api.sh",
      "args": ["TABLE_PARAM","X_PARAMS","Y_PARAMS","SUBGROUP_PARAM","FILTER_PARAMS","TRACK_TICKET","TIME_PARAMS","CONDITIONS","API_INPUT"],
      "output": "DrilldownExportAPI",
      "temp":["DrilldownExportCache"],
      "block": true
    },
    "lvr_main_c_track": {
      "type": "command",
      "cmd": "TimeLiveBI_Track.sh",
      "args": ["TABLE_PARAM","X_PARAMS","Y_PARAMS","SUBGROUP_PARAM","FILTER_PARAMS","TRACK_TICKET","TIME_PARAMS","CONDITIONS"],
      "output": "Track",
      "temp":[],
      "block": true,
      "permanentTable":true
    },
    "lvr_main_c_xgrouping": {
      "type": "command",
      "cmd": "TimeLiveBI_XGrouping.sh",
      "args": ["PRETICKET","XGROUP","XDIM","TYPE"],
      "output": "XGroup",
      "temp":[],
      "block": true,
      "permanentTable":true
    },
    "lvr_main_c_lineoverall": {
      "type": "command",
      "cmd": "TimeLiveBI_LineOverall.sh",
      "args": ["TABLE_PARAM","X_PARAMS","Y_PARAMS","SUBGROUP_PARAM","FILTER_PARAMS","TRACK_TICKET","TIME_PARAMS","CONDITIONS"],
      "output": "TimeLiveBI_LineOverall",
      "temp":[],
      "block": true
    },
    "lvr_main_c_lineaverage": {
      "type": "command",
      "cmd": "TimeLiveBI_LineAverage.sh",
      "args": ["TABLE_PARAM","X_PARAMS","Y_PARAMS","SUBGROUP_PARAM","FILTER_PARAMS","TRACK_TICKET","TIME_PARAMS","CONDITIONS"],
      "output": "TimeLiveBI_LineAverage",
      "temp":[],
      "block": true
    },
    "lvr_main_c_linetrend": {
      "type": "command",
      "cmd": "TimeLiveBI_LineTrend.sh",
      "args": ["TABLE_PARAM","X_PARAMS","Y_PARAMS","SUBGROUP_PARAM","FILTER_PARAMS","TRACK_TICKET","TIME_PARAMS","CONDITIONS"],
      "output": "TimeLiveBI_LineTrend",
      "temp":[],
      "block": true
    },
    "lvr_main_c_rawdata": {
      "type": "command",
      "cmd": "TimeLiveBI_LineTrend.sh",
      "args": ["TABLE_PARAM","X_PARAMS","Y_PARAMS","SUBGROUP_PARAM","FILTER_PARAMS","TRACK_TICKET","TIME_PARAMS","CONDITIONS"],
      "output": "TimeLiveBI_LineTrend",
      "temp":[],
      "block": true
    },
		"TWSGEO": {
			"meta": "TWSGEO.json",
			"partition": {},
			"block": true
		},
		"dynamicgis": {
			"meta": "TWSGEO.json",
			"cmd": "dynamicgis.sh",
			"type": "command",
			"args": [
				"TIMES",
				"CITY",
				"AREA",
        "range",
        "id"
			],
			"output": "dynamicgis",
			"partition": {},
			"block": true
		},
		"twstable": {
      "meta": "TWSGEO.json",
			"cmd": "twstable.sh",
			"type": "command",
			"args": [
				"TIMES",
				"CITY",
				"AREA",
        "range",
        "id"
			],
			"output": "twstable",
			"partition": {},
			"block": true
		},
		"gisbar_price1": {
      "meta": "TWSGEO.json",
			"cmd": "gisbar_price1.sh",
			"type": "command",
			"args": [
				"TIMES",
				"CITY",
				"AREA",
        "range",
        "id"
			],
			"output": "gisbar_price1",
			"partition": {},
			"block": true
		},
		"facilities": {
      "meta": "TWSGEO.json",
			"cmd": "facilities.sh",
			"type": "command",
			"args": [
				"TIMES",
				"CITY",
				"AREA",
        "range",
        "id"
			],
			"output": "facilities",
			"partition": {},
			"block": true
		},
		"building": {
      "meta": "TWSGEO.json",
			"cmd": "building.sh",
			"type": "command",
			"args": [
				"TIMES",
				"CITY",
				"AREA",
        "range",
        "id"
			],
			"output": "building",
			"partition": {},
			"block": true
		},
		"apartment": {
      "meta": "TWSGEO.json",
			"cmd": "apartment.sh",
			"type": "command",
			"args": [
				"TIMES",
				"CITY",
				"AREA",
        "range",
        "id"
			],
			"output": "apartment",
			"partition": {},
			"block": true
		},
		"huaxia": {
      "meta": "TWSGEO.json",
			"cmd": "huaxia.sh",
			"type": "command",
			"args": [
				"TIMES",
				"CITY",
				"AREA",
        "range",
        "id"
			],
			"output": "huaxia",
			"partition": {},
			"block": true
		},
		"house": {
      "meta": "TWSGEO.json",
			"cmd": "house.sh",
			"type": "command",
			"args": [
				"TIMES",
				"CITY",
				"AREA",
        "range",
        "id"
			],
			"output": "house",
			"partition": {},
			"block": true
		},
		"building_trend": {
      "meta": "TWSGEO.json",
			"cmd": "building_trend.sh",
			"type": "command",
			"args": [
				"TIMES",
				"CITY",
				"AREA",
        "range",
        "id"
			],
			"output": "building_trend",
			"partition": {},
			"block": true
		},
		"apartment_trend": {
      "meta": "TWSGEO.json",
			"cmd": "apartment_trend.sh",
			"type": "command",
			"args": [
				"TIMES",
				"CITY",
				"AREA",
        "range",
        "id"
			],
			"output": "apartment_trend",
			"partition": {},
			"block": true
		},
		"huaxia_trend": {
      "meta": "TWSGEO.json",
			"cmd": "huaxia_trend.sh",
			"type": "command",
			"args": [
				"TIMES",
				"CITY",
				"AREA",
        "range",
        "id"
			],
			"output": "huaxia_trend",
			"partition": {},
			"block": true
		},
		"house_trend": {
      "meta": "TWSGEO.json",
			"cmd": "house_trend.sh",
			"type": "command",
			"args": [
				"TIMES",
				"CITY",
				"AREA",
        "range",
        "id"
			],
			"output": "house_trend",
			"partition": {},
			"block": true
		},
		"select_times": {
			"cmd": "select_times.sh",
			"type": "dashboard",
			"output": "select_times",
			"partition": {},
			"block": true
		},
		"select_city": {
			"cmd": "select_city.sh",
			"type": "dashboard",
			"output": "select_city",
			"partition": {},
			"block": true
		},
		"select_town": {
			"cmd": "select_town.sh",
			"type": "dashboard",
			"args": [
				"CITY"
			],
			"output": "select_town",
			"partition": {},
			"block": true
		},
		"userpreference": {
			"meta": "userpreference.json",
			"partition": {},
			"block": true
		},
		"compare": {
      "meta": "userpreference.json",
			"cmd": "compare.sh",
			"type": "command",
			"args": [
        "DATE",
        "TIMES",
				"CITY",
				"AREA",
        "ID"
			],
			"output": "compare",
			"partition": {},
			"block": true
		}
  }
}