{
  "app": "req_example",
  "type": "command",
  "description": "Table data",
  "interface": {
    "description": "",
    "input": {
      "subtitle": "原始資料匯出",
      "fields": [
        "COLUMN",
        "channel_name_filter",
        "Product_brandOwner",
        "req_example_dynamic",
        "Date_start",
        "Date_end",
        "els_word"
      ],
      "COLUMN": {
        "name": "選取欄位",
        "type": "string",
        "multiple": true,
        "required": true,
        "order": "none",
        "data": [
          {
            "name": "order id",
            "value": "order_id",
            "type": "string"
          },
          {
            "name": "Customer id",
            "value": "Customer.id",
            "type": "string"
          },
          {
            "name": "Product id",
            "value": "Product.id",
            "type": "string"
          },
          {
            "name": "channel name",
            "value": "channel_name",
            "type": "string"
          },
          {
            "name": "Date",
            "value": "Date",
            "type": "string"
          },
          {
            "name": "qty",
            "value": "qty",
            "type": "string"
          },
          {
            "name": "total price",
            "value": "total_price",
            "type": "string"
          }
        ],
        "optionalGroup": "G2"
      },
      "channel_name_filter": {
        "name": "channel_name 條件",
        "default": "7-11",
        "type": "string"
      },
      "`Owner": {
        "name": "Product.brandOwner 條件",
        "type": "string",
        "multiple": true,
        "data": [
          {
            "name": "Coca-Cola",
            "value": "Coca-Cola"
          },
          {
            "name": "Pepsico",
            "value": "Pepsico"
          },
          {
            "name": "Quaker",
            "value": "Quaker"
          }
        ]
      },
      "req_example_dynamic": {
        "name": "Product.brand 條件",
        "type": "string",
        "data": "req_example_dynamic",
        "dependon":["Product_brandOwner"],
        "multiple": true
      },
      "Date_start": {
        "name": "起始日期",
        "default": "2013-01-01",
        "type": "string",
        "optionalGroup": "G1"
      },
      "Date_end": {
        "name": "結束日期",
        "default": "2014-01-02",
        "type": "string",
        "optionalGroup": "G1"
      },
      "els_word": {
        "name": "elasticsearh文字",
        "default": "",
        "type": "string"
      }
    },
    "output": {
      "fields": "COLUMN",
      "csv": "sales_request_data_adv_csv"
    }
  },
  "charts": [
    {
      "name": "匯出報表",
      "type": "table"
    }
  ],
  "autoDisplay": true,
  "nameColDisplay": true
}